…
``` r
#removed values that seem unnatural
wind_speed_filtered = nyc_flight_weather %>%
  group_by(wind_speed) %>%
  filter(wind_speed < 200) %>%
  print(wind_speed_filtered)
```

    ## Source: local data frame [26,126 x 15]
    ## Groups: wind_speed [34]
    ## 
    ##    origin  year month   day  hour  temp  dewp humid wind_dir wind_speed
    ##     <chr> <dbl> <dbl> <int> <int> <dbl> <dbl> <dbl>    <dbl>      <dbl>
    ## 1     EWR  2013     1     1     0 37.04 21.92 53.97      230   10.35702
    ## 2     EWR  2013     1     1     1 37.04 21.92 53.97      230   13.80936
    ## 3     EWR  2013     1     1     2 37.94 21.92 52.09      230   12.65858
    ## 4     EWR  2013     1     1     3 37.94 23.00 54.51      230   13.80936
    ## 5     EWR  2013     1     1     4 37.94 24.08 57.04      240   14.96014
    ## 6     EWR  2013     1     1     6 39.02 26.06 59.37      270   10.35702
    ## 7     EWR  2013     1     1     7 39.02 26.96 61.63      250    8.05546
    ## 8     EWR  2013     1     1     8 39.02 28.04 64.43      240   11.50780
    ## 9     EWR  2013     1     1     9 39.92 28.04 62.21      250   12.65858
    ## 10    EWR  2013     1     1    10 39.02 28.04 64.43      260   12.65858
    ## # ... with 26,116 more rows, and 5 more variables: wind_gust <dbl>,
    ## #   precip <dbl>, pressure <dbl>, visib <dbl>, time_hour <dttm>
…
``` r
##### Make a table and a plot of median wind speed by direction, for each airport.
# split to respective airports

#for EWR
EWR = median_speed_dir %>%
  filter(origin == 'EWR')
print(EWR)
```

    ## Source: local data frame [38 x 3]
    ## Groups: origin [1]
    ## 
    ##    origin wind_dir wind_speed_high_med
    ##     <chr>    <dbl>               <dbl>
    ## 1     EWR        0             0.00000
    ## 2     EWR       10             9.20624
    ## 3     EWR       20             9.20624
    ## 4     EWR       30             9.20624
    ## 5     EWR       40            10.35702
    ## 6     EWR       50             8.05546
    ## 7     EWR       60             8.05546
    ## 8     EWR       70             6.90468
    ## 9     EWR       80             6.90468
    ## 10    EWR       90             6.32929
    ## # ... with 28 more rows

``` r
#for JFK
JFK = median_speed_dir %>%
  filter(origin == 'JFK')
print(JFK)
```

    ## Source: local data frame [38 x 3]
    ## Groups: origin [1]
    ## 
    ##    origin wind_dir wind_speed_high_med
    ##     <chr>    <dbl>               <dbl>
    ## 1     JFK        0             0.00000
    ## 2     JFK       10             8.05546
    ## 3     JFK       20             9.20624
    ## 4     JFK       30             9.20624
    ## 5     JFK       40             9.20624
    ## 6     JFK       50             8.05546
    ## 7     JFK       60             7.48007
    ## 8     JFK       70             8.05546
    ## 9     JFK       80             8.63085
    ## 10    JFK       90             9.20624
    ## # ... with 28 more rows

``` r
#for LGA
LGA = median_speed_dir %>%
  filter(origin == 'LGA')
print(LGA)
```

    ## Source: local data frame [38 x 3]
    ## Groups: origin [1]
    ## 
    ##    origin wind_dir wind_speed_high_med
    ##     <chr>    <dbl>               <dbl>
    ## 1     LGA        0             0.00000
    ## 2     LGA       10             9.20624
    ## 3     LGA       20             8.05546
    ## 4     LGA       30             9.20624
    ## 5     LGA       40             8.63085
    ## 6     LGA       50             9.20624
    ## 7     LGA       60             9.20624
    ## 8     LGA       70             8.05546
    ## 9     LGA       80             8.05546
    ## 10    LGA       90             6.90468
    ## # ... with 28 more rows
…
